{
  "project_info": {
    "project_number": "882944444086",
    "firebase_url": "https://wasurtravel.firebaseio.com",
    "project_id": "wasurtravel",
    "storage_bucket": "wasurtravel.appspot.com"
  },
  "client": [
    {
      "client_info": {
        "mobilesdk_app_id": "1:882944444086:android:4516c90c99f070fcd9c817",
        "android_client_info": {
          "package_name": "id.ucp.wasurtravel"
        }
      },
      "oauth_client": [
        {
          "client_id": "882944444086-2n178l1dtf3unntu7mio96s4oovst6lr.apps.googleusercontent.com",
          "client_type": 3
        }
      ],
      "api_key": [
        {
          "current_key": "AIzaSyD8STvHub6awZlig13dD5WRfJ6DdEg7pMA"
        }
      ],
      "services": {
        "appinvite_service": {
          "other_platform_oauth_client": [
            {
              "client_id": "882944444086-2n178l1dtf3unntu7mio96s4oovst6lr.apps.googleusercontent.com",
              "client_type": 3
            }
          ]
        }
      }
    }
  ],
  "configuration_version": "1"
}